src/out/testbench/knn_tb.vcd
$date
    Wed Dec 12 18:48:05 2018
$end
$version
    MyHDL 0.10
$end
$timescale
    1ns
$end

$scope module knn_tb $end
$var reg 32 ! train_vector $end
$var reg 32 " test_vector $end
$var reg 32 # distance_vector $end
$scope module distance0 $end
$var reg 32 ! train_vector $end
$var reg 32 " test_vector $end
$var reg 32 # distance_vector $end
$upscope $end
$upscope $end

$enddefinitions $end
$dumpvars
b00000000000000000000000000000000 !
b00000000000000000000000000000000 "
b00000000000000000000000000000000 #
$end
b10000000000000100000000000000101 !
b00000000000000010000000000000001 "
b10000000000000000001000101111000 #
#10
b10000000000001000000000000000000 !
b10000000000000000001011111000010 #
#20
b01000000000000011000000000000000 !
b01000000000000000000010110000110 #
#30
b00000000000000001000000000000101 !
b00000000000000000001000000011011 #
#40
b01000000000000011000000000000110 !
b01000000000000000001001111101011 #
#50
b10000000000000001000000000001001 !
b10000000000000000001111101111110 #
#60
b00000000000000000000000000000011 !
b00000000000000000000101100001100 #
#70
b01000000000000100000000000000010 !
b01000000000000000000100010111100 #
#80
b01000000000000010000000000000001 !
b01000000000000000000000000000000 #
#90
b00000000000001001000000000001001 !
b00000000000000000010100110000110 #
#100
b01000000000000010000000000000010 !
b01000000000000000000001111101000 #
#110
b00000000000000000000000000000011 !
b00000000000000000000101100001100 #
